{
  "group": "additions",
  "type": "minecraft:crafting_shaped",
  "pattern": [
    "0  ",
    "34 ",
    "678"
  ],
  "key": {
    "0": {
      "item": "additions:deathwood_planks"
    },
    "3": {
      "item": "additions:deathwood_planks"
    },
    "4": {
      "item": "additions:deathwood_planks"
    },
    "6": {
      "item": "additions:deathwood_planks"
    },
    "7": {
      "item": "additions:deathwood_planks"
    },
    "8": {
      "item": "additions:deathwood_planks"
    }
  },
  "result": {
    "item": "additions:deathwood_stairs",
    "count": 4
  }
}