{
  "group": "additions",
  "type": "minecraft:crafting_shaped",
  "pattern": [
    "012",
    "345"
  ],
  "key": {
    "0": {
      "item": "additions:deathwood_planks"
    },
    "1": {
      "item": "minecraft:stick"
    },
    "2": {
      "item": "additions:deathwood_planks"
    },
    "3": {
      "item": "additions:deathwood_planks"
    },
    "4": {
      "item": "minecraft:stick"
    },
    "5": {
      "item": "additions:deathwood_planks"
    }
  },
  "result": {
    "item": "additions:deathwood_fence",
    "count": 3
  }
}