{
  "group": "additions",
  "type": "minecraft:crafting_shapeless",
  "ingredients": [
    {
      "tag": "forge:deathwood_log"
    }
  ],
  "result": {
    "item": "additions:deathwood_planks",
    "count": 4
  }
}