{
  "type": "minecraft:smithing",
  "base": {
    "item": "additions:steel_ingot"
  },
  "addition": {
    "item": "minecraft:diamond"
  },
  "result": {
    "item": "additions:improved_steel_ingot"
  }
}