{
  "group": "additions",
  "type": "minecraft:crafting_shaped",
  "pattern": [
    "0 2",
    "3 5"
  ],
  "key": {
    "0": {
      "item": "additions:steel_ingot"
    },
    "2": {
      "item": "additions:steel_ingot"
    },
    "3": {
      "item": "additions:steel_ingot"
    },
    "5": {
      "item": "additions:steel_ingot"
    }
  },
  "result": {
    "item": "additions:steel_armor_boots",
    "count": 1
  }
}