{
  "parent": "block/outer_stairs",
  "textures": {
    "bottom": "additions:blocks/lifewood_planks",
    "top": "additions:blocks/lifewood_planks",
    "side": "additions:blocks/lifewood_planks"
  }
}