{
  "variants": {
    "type=bottom": {
      "model": "additions:block/deathwood_slab"
    },
    "type=top": {
      "model": "additions:block/deathwood_slab_top"
    },
    "type=double": {
      "model": "additions:block/deathwood_slab_full"
    }
  }
}